[
  {
    "id": "bf01",
    "name": "М'ясна",
    "description": "Піца соус, сир Моцарелла, томат, філе куряче, пепероні, свинина, бекон",
    "price": 185,
    "image": "img/byfet/meet.jpg",
    "timeOfDelivery": 30
  },
  {
    "id": "bf02",
    "name": "Маргарита",
    "description": "Пицца соус, сыр Моцарелла, томат",
    "price": 193,
    "image": "img/byfet/margarita.jpg"
  },
  {
    "id": "bf03",
    "name": "Пепперони",
    "description": "Пицца соус, пепперони, сыр Моцарелла",
    "price": 195,
    "image": "img/byfet/pepperoni.jpg"
  },
  {
    "id": "bf04",
    "name": "Сім сирів",
    "description": "Сир моцарелла, сир ементаль, сирний соус, сир горгондзолу, сир чеддер, сир креметте, сир фетаксу, сир пармезан",
    "price": 285,
    "image": "img/byfet/seven-cheeses.jpg"
  },
  {
    "id": "bf05",
    "name": "Фірмова",
    "description": "Курка,Шинка,Майонез,Сир,Печериці,Маслини,Томатний соус",
    "price": 295,
    "image": "img/byfet/firmennaya.jpg"
  },
  {
    "id": "bf06",
    "name": "Норвезька",
    "description": "Вершковий соус, соус манго-чілі, сир моцарелла, цибуля червона, перець болгарський, скибочки лосося, салат Айсберг",
    "price": 175,
    "image": "img/byfet/norwegian.jpg"
  },
  {
    "id": "bf07",
    "name": "Норвезька",
    "description": "Куряче філе,Огірки свіжі,Яйця,Картопля,Кріп,Цибуля зелена,Сметана,Майонез,Гірчиця,Лимонна кислота",
    "price": 55,
    "image": "img/byfet/okroshka-product.jpg"
  }
]
