[
  {
    "id": "pb01",
    "name": "Піца від шеф-кухаря",
    "description": "Сир моцарелла, помідори, салямі, бекон, сир пармезан, зелень, шинка",
    "price": 638,
    "image": "img/pizza-burger/pizza-dacha.jpg"
  },
  {
    "id": "pb02",
    "name": "Піца М'ясне асорті",
    "description": "Сир моцарелла, фірмовий соус, помідори, куряча грудка, бекон, свинина, яловичина, зелень",
    "price": 693,
    "image": "img/pizza-burger/pizza-meat.jpg"
  },
  {
    "id": "pb03",
    "name": "Піца Сільська",
    "description": "Сир моцарелла, піца соус, часник, сир пармезан, печериці, помідори, зелень, цибуля, курка, бекон, шинка, пепероні",
    "price": 705,
    "image": "img/pizza-burger/pizza-village.jpg"
  },
  {
    "id": "pb04",
    "name": "Піца Цезар",
    "description": "Соус Цезар, куряча грудка, сир пармезан, моцарелла, грінки, помідори, салат айсберг",
    "price": 759,
    "image": "img/pizza-burger/pizza-caesar.jpg"
  },
  {
    "id": "pb05",
    "name": "Піца Пепероні",
    "description": "Сир моцарелла, піца соус, печериці, пепероні",
    "price": 475,
    "image": "img/pizza-burger/pizza-pepperoni.jpg"
  },
  {
    "id": "pb06",
    "name": "Піца Дачна",
    "description": "Сыр моцарелла, піца соус, бекон, картопля фрі, куряча грудка, помідори, пепероні, шинка, зелень",
    "price": 649,
    "image": "img/pizza-burger/pizza-dacha.jpg"
  }
]
