[
  {
    "id": "tn01",
    "name": "ФІЛАДЕЛЬФІЯ НІСУАЗ",
    "description": "Вугор, авокадо, сир, тобіко, соус \"Нісуаз\", кунжут, 6 шт.",
    "price": 625,
    "image": "img/tanuki/nisuaz.jpg"
  },
  {
    "id": "tn02",
    "name": "ФІЛАДЕЛЬФІЯ СМОУК",
    "description": "Лосось копчений, курка копчена, омлет, огірок, авокадо, сир, мікс соусів, 6 шт.",
    "price": 455,
    "image": "img/tanuki/smoke.jpg"
  },
  {
    "id": "tn03",
    "name": "ФІЛАДЕЛЬФІЯ ФРЕШ",
    "description": "Лосось, авокадо, огірок, сир, омлет, тобіко, мікс соусів",
    "price": 500,
    "image": "img/tanuki/fresh.jpg"
  },
  {
    "id": "tn04",
    "name": "КАЛІФОРНІЯ АЖІ",
    "description": "Лосось, авокадо, краб-мікс, сир, соус «Ажі-Маракуйя», тобіко, кунжут, 6 шт.",
    "price": 520,
    "image": "img/tanuki/azhi.jpg"
  },
  {
    "id": "tn05",
    "name": "КАЛІФОРНІЯ БЛЕК",
    "description": "Креветка, краб-мікс, сир, тобіко, соусів, кунжут, 6 шт.",
    "price": 735,
    "image": "img/tanuki/black.jpg"
  },
  {
    "id": "tn06",
    "name": "ТАНУКИ",
    "description": "Креветка, сніжний краб, гуакамоле, сир, огірок, мікс соусів, тобіко, кунжут, 6 шт.",
    "price": 899,
    "image": "img/tanuki/tanuki.jpg"
  }
]
